#   General input format
results_dir          = 'results' #'../results_parallel'
file_name 		= 'SCALES_LKM_Nu009_Cf6_Eps03__VERSION5Test_5'  # base input file name
station_subdir       = T
begin_station_num 	= 600 #1626 #1277 #801
end_station_num	= 603 #1838 #1625 #1276 1600
step_station_num	= 1
SINGLE_FILE          = F
eps_post 		= 0.0
eps_sim	 	= 0.3 #0.43 #0.2
viscosity 		= 0.090
Kmax			= 1

do_Constant_K_TimeAverage = T 
K_time_average            = 64    # Specified fixed wavenumber for calculating the time_averaged spectrum

#  For use by adaptive spectra calculation
NUMBER_OF_BINS = 2048             #  of shells in wavenumber space'
MIN_POINTS_PER_BIN = 100          #  minimum # of points in wavenumber space per shell
MAX_POINTS_PER_BIN = 5000         #  maximum # of points in wavenumber space per shell
PERCENT_OF_POINTS_PER_BIN = 1.0   #  percentage of points in wavenumber space per shell
