#   General input format
file_name 		= 'CVS0.1_Nu0.14.updt0.jmx11.db_tree.'  # base input file name
begin_station_num 	= 0
end_station_num		= 79
eps_post 		= 0.0
eps_sim	 		= 0.1
viscosity 		= 0.140
Kmax			= 1

#  For use by daptive spectra calculation
NUMBER_OF_BINS = 2              # of shells in wavenumber space'
MIN_POINTS_PER_BIN = 1         #  minimum # of points in wavenumber space per shell
MAX_POINTS_PER_BIN = 2        #  maximum # of points in wavenumber space per shell
PERCENT_OF_POINTS_PER_BIN = 0.00001  # percentage of points in wavenumber space per shell
