#------------------------------------------------------------------#
# General input file format                                        #
#                                                                  #
# comments start with # till the end of the line                   #
# string constant are quoted by "..." or '...'                     #
# boolean can be (T F 1 0 on off) in or without ' or " quotes      #
# integers are integers                                            #
# real numbers are whatever (e.g. 1   1.0   1e-23   1.123d-54 )    #
# vector elements are separated by commas                          #
# spaces between tokens are not important                          #
# empty or comment lines are not important                         #
# order of lines is not important                                  #
#------------------------------------------------------------------#

###############################################################################################################################################################
#  F i l e      I n f o r m a t i o n
#
#file_gen = 'lores/wnewBrink.lores.
#file_gen = 'lores/woutBrink.lores.'
#file_gen = 'hires/wnewBrink.hires.'
#file_gen = 'hires/wnewBrink_vn10.hires.'
file_gen = 'wedge_M2.0Q15.'
###############################################################################################################################################################

###############################################################################################################################################################
#  D o m a i n      I n f o r m a t i o n
#
dimension = 2		#  dim (2,3), # of dimensions

#coord_min = -1.5, 0.0,-1.0	#  XMIN, YMIN, ZMIN, etc
#coord_max = 1.5, 3.0, 1.0	#  XMAX, YMAX, ZMAX, etc
#coord_min = -1, 0.0,-1.0	#  XMIN, YMIN, ZMIN, etc
#coord_max = 1, 1.0, 1.0	#  XMAX, YMAX, ZMAX, etc
#coord_min = 0.0, 0.0, 0.0	#  XMIN, YMIN, ZMIN, etc
#coord_max = 1.0, 1.0, 1.0	#  XMAX, YMAX, ZMAX, etc
coord_min = 0, 0.0, 0.0	#  XMIN, YMIN, ZMIN, etc
coord_max = 1.5, 1.0, 1.0	#  XMAX, YMAX, ZMAX, etc
#coord_min = 0.0, 0.0, 0.0	#  XMIN, YMIN, ZMIN, etc
#coord_max = 25, 16.5, 1.0	#  XMAX, YMAX, ZMAX, etc


j_mn_init = 2              	#  J_mn_init force J_mn == J_INIT while adapting to IC
j_lev_init = 3          	#  starts gaadapting IC by having all the points on this level of resolution
#j_IC = 20               #  J_ICdatafile if the IC data does not have dimensions in it then mxyz(:)*2^(j_ICdatafile-1) is used
J_MN = 2         	#  J_MN
J_MX = 5            	#  J_MX

J_FILT = 20            	#  J_FILT

#j_mn_init = 3              	#  J_mn_init force J_mn == J_INIT while adapting to IC
#j_lev_init = 3          	#  starts adapting IC by having all the points on this level of resolution
##j_IC = 20               #  J_ICdatafile if the IC data does not have dimensions in it then mxyz(:)*2^(j_ICdatafile-1) is used
#J_MN = 3         	#  J_MN
#J_MX = 6            	#  J_MX

#j_mn_init = 3              	#  J_mn_init force J_mn == J_INIT while adapting to IC
#j_lev_init = 3          	#  starts adapting IC by having all the points on this level of resolution
##j_IC = 20               #  J_ICdatafile if the IC data does not have dimensions in it then mxyz(:)*2^(j_ICdatafile-1) is used
#J_MN = 3         	#  J_MN
#J_MX = 5            	#  J_MX


J_TREE_ROOT = 2         #  J_TREE_ROOT:  root level for trees for parallel

BNDzone = F	  	#  BNDzone
#j_zn = 2                #  j_zone
#coord_zone_min = -5e+05,-5e+05,-5e+05		# XMINzone, etc
#coord_zone_max =  5e+05, 5e+05, 5e+05		# XMAXzone, etc

#M_vector = 40,2,4	#  Mx, etc
M_vector  = 15,30,2	#  Mx, etc
#M_vector = 20,2,4	#  Mx, etc
#M_vector = 512,256,0	#  Mx, etc
#M_vector = 1024,256,0	#  Mx, etc
#M_vector = 1536,256,0	#  Mx, etc
periodic = 0,0,0	#  prd(:) (0/1) 0: non-periodic; 1: periodic
uniform = 0,0,0		#  grid(:) (0/1) 0: uniform; 1: non-uniform
i_h = 123456        	#  order of boundaries (1-xmin,2-xmax,3-ymin,4-ymax,5-zmin,6-zmax)
i_l = 111111        	#  algebraic/evolution (1/0) BC order: (lrbt)
###############################################################################################################################################################

###############################################################################################################################################################
#  A W C M      I n f o r m a t i o n
#
eps_init = 1.0000000e-3  	#  EPS used to adapt initial grid  
eps_run  = 1.0000000e-3  	#  EPS used in run  
eps_adapt_steps = 0             # eps_adapt_steps ! how many time steps to adapt from eps_init to eps_run

N_predict = 2           #  N_predict
N_predict_low_order = 1 #  N_predict_low_order
N_update = 0           	#  N_update
N_update_low_order = 0  #  N_update_low_order
N_diff = 2              #  N_diff

Scale_Meth = 3             	# Scale_Meth !1- Linf, 2-L2
scl_fltwt = 0.0           	#  scl temporal filter weight, scl_new = scl_fltwt*scl_old + ( 1-scl_fltwt)*scl_new

IJ_ADJ = 1,1,1		# IJ_ADJ(-1:1) = (coarser level), (same level), (finer level)
ADJ_type = 1,1,1	#  ADJ_type(-1:1) = (coarser level), (same level), (finer level) # (0 - less conservative, 1 - more conservative)
###############################################################################################################################################################

###############################################################################################################################################################
#  T i m e    I n t e g r a t i o n     I n f o r m a t i o n
#
time_integration_method = 1  # 0- meth2, 1 -krylov, 2 - Crank Nicolson 

t_begin = 0.0000e+00   	#  tbeg  
t_end   = 5.00000e+00 	#  tend  
dt      = 2.0000000e-04 #  dt
dtmax   = 1.0000000e-02 # dtmax
dtmin   = 1.0000000e-08 # dtmin-if dt < dtmin then exection stops(likely blowing up)
dtwrite = 1.0000000e-02	#  dtwrite 1.0000000e-02 
t_adapt = 1.0000000e+10 # when t > t_adapt use an adaptive time step if possible

cflmax = 0.5000000e-00 	#  cflmax
cflmin = 1.0000000e-08 	#  cflmin , Exit if cfl < cflmin
###############################################################################################################################################################

###############################################################################################################################################################
#  R e s t a r t     F i l e      I n f o r m a t i o n
#
do_Sequential_run   = F         # do_Sequential_run
IC_restart_mode     = 0         # 0-new run; 1-hard restart; 2-soft restart; 3-restart from IC --------
                                             # Hard restart - restart a previous run (without changing any parameters)
                                                             # Soft restart - epsilons, names, j_mx, j_tree_root, etc, could be changed
                                                                             # Restart from IC - some parameters can be changed and user initial conditions can be imposed
IC_restart_station  = 0200      # it_start, restart file number to use (NOT iteration!)
IC_file_fmt         = 0         # IC data file format  (0 - native restart file, 1-netcdf, 2- A.Wray in fourier space, 3-simple binary) next line is IC filename
IC_filename = 'results/blob_hires/test/pen8.0200.res'
#IC_restart          = F         # ICrestart  T or F, restart a previous run. (multually exclusive with IC_from_file)
#IC_from_file        = F         # Do a new run with IC from a restart file
#IC_adapt_grid       = F         # parameter defaulted to .TRUE. If is set to .FALSE. no grid adaptation is done after the data are read.
#Data_file_format    = F         # T = formatted, F = unformatted
###############################################################################################################################################################

###############################################################################################################################################################
#  P a r a l l e l     D o m a i n      D e c o m p o s i t i o n
#
domain_debug  = F
domain_split  = 1, 1, 1      # Parallel domain decomposition: 1 allows subdivision in the direction (x,y,z,etc) (nonzero - allow, 0 - do not split that direction)

domain_meth  = 3      # domain meth decomposition is based on . . .
                      #       0 (default) geometric simultaneous - based on prime number 
                      #       1 geometric sequential (recursive pd N) based on N^(1/D) subdivision
                      #       2 Zoltan library, Geometric
                      #       3 Zoltan library, Hypergraph
                      #       10 tree number
                      #       11 tree number as if the boundaries are excluded
                      #       -1 read domain decomposition from the restart file
                      #           (during restart or in postprocessing only)
#IC_processors = 1
#domain_imbalance_tol = 0,0,0
###############################################################################################################################################################

###############################################################################################################################################################
#  D e b u g     F l a g s
#
debug_force_wrk_wlt_order = F      # this ensures that tree and wrk are same, only set T for debug purposes 
debug_level               = 0      #  debug
verb_level                = 0      # 0- nothing is printed except for errors, warnings, and .inp listing     1- output from I/O related subroutines is printed     DefaultValue=1
debug_c_diff_fast         = 0      # 0- nothing,1- derivative MIN/MAXVALS,2- low level, are printed in c_diff_fast
diagnostics_elliptic      = F      #  diagnostics_elliptic: If T print full diagnostic for elliptic solver
GMRESflag                 = F      #  GMRESflag
BiCGSTABflag              = F      #  BiCGSTABflag
wlog                      = F      #  wlog: elliptic verb
###############################################################################################################################################################

###############################################################################################################################################################
#  S o l v e r    S e t t i n g s
#
Zero_Mean = F           #  T- enforce zero mean for 1:dim first variables (velocity usually), F- do nothing

Jacoby_correction = F           # Jacoby_correction
multigrid_correction = F        # multigrid_correction
GMRES_correction  = F           # GMRES_correction 

kry_p = 3			#  kry_p
kry_p_coarse = 100           	#  kry_p_coarse
len_bicgstab = 6             	#  len_bicgstab
len_bicgstab_coarse = 100	#  len_bicgstab_coarse
len_iter = 5            	#  len_iter

W0 = 1.0000000e+00 	#  W0 underrelaxation factor for inner V-cycle
W1 = 1.0000000e+00 	#  W1 underrelaxation factor on the finest level
W2 = 0.6000000e+00 	#  W2 underrelaxation factor for weighted Jacoby (inner points)
W3 = 1.0000000e-00 	#  W3 underrelaxation factor for weighted Jacoby (boundary points)
W_min = 1.00000e-02	#  W_min correcton factor 
W_max = 1.00000e-00 	#  W_max correction factor 

tol1 = 1.00e-05 	#  tol1 used to set tolerence for non-solenoidal half-step
tol2 = 1.00e-05 	#  tol2 used to set tolerence for solenoidal half-step
tol3 = 1.00e-02         #  used to set tolerence for time step
tol_gmres = 1.0e-08     #  used to set tolerence for gmres iterative solver
tol_gmres_stop_if_larger = F  # If true stop iterating in gmres solver if error of last iteration was smaller
###############################################################################################################################################################

###############################################################################################################################################################
#  F i l t e r    T y p e s
#
                                #  filter types: 0 - none, 1 - >eps, 2 - >2eps,
                                #                3 - level <= j_lev-1, 4 - level <= j_lev-2
                                #                5 - 2eps + adjacent zone,
                                #                6 - local low-pass filter (lowpass_filt_type, lowpassfilt_support, tensorial_filt)
                                #                7 - u > eps_explicit filter
                                #                8 - u > eps_explicit filter + adjecent zone
                                #                9 - u > 2eps_explicit filter
                                #               10 - u > 2eps_explicit filter + adjecent zone
mdl_filt_type_grid = 0                  # dyn mdl grid filter, 0 - 6
ExplicitFilter = F      # ExplicitFilter ,apply grid filter as an explicit filter each time step
###############################################################################################################################################################


###############################################################################################################################################################
#  M y     A d d i t i o n a l     P a r a m e t e r s
#

########## CASE SETUP ##########
Nspec = 1                 # Nsp: number of species
mydt_orig = 1.0000000e-03 # mydt_orig: max dt for time integration... dt is only initial dt, set <0 to use dt
NS  = F                   # NS: T to include full Navier-Stokes viscous terms, F for Euler
GRAV = F                  # GRAV: T to include body force terms, F to ingore them
convcfl = F               # convcfl: T to use convective cfl, F to use acoustic cfl
boundY = F                # boundY: T to bound Y to [0,1] in user_pre/post_process
################################

########## NONDIMENSIONALS ##########
Re  = 5.0000000e+02          #  Re: Reynolds Number
Pra = 1.0000000e+00          #  Pra: Prandtl Number
Sc  = 1.0000000e+00          #  Sc: Schmidt Number
Fr  = 1.0000000e+00          #  Fr: Froude Number
Ma  = 2.0000000e-00          #  Ma: Mach Number
At  = 0.0000000e-00          #  At: Atwood Number

gamm = 1.400e+00, 1.400e+00  #  gamm: specific heat ratio for each pure fluid
adaptAt = F                  # adaptAt: T to modify At to get effective At = input At due to peakchange
peakchange = 1.0000000e-02   # peakchange: offset from 0 and 1 for double delta PDF of f
#####################################

########## VISCOUS BUFFER LAYER ##########
buffRe      = F            # buffRe: T to change Reynolds number near boundaries
Rebnd       = 1.00000e+00  # Rebnd: Reynolds Number on boundaries
adaptbuffRe = F            # adaptbuffRe: T to adapt on buffer layer - sets obstacle to T
maskscl     = 1.0          # maskscl: scale for mask, set < 0 for default
buffRewait  = F            # buffRewait: T to wait until acoustic waves reach boundaries to do buffRe
waitrat = 1.00000e-01      # waitrat: fraction to wait beyond acoustic speed travel time
polybuffRe = F       # polybuffRe: T to use polynomials for buffRe,  F to use tanh
buffBeta    = 1.0    # bufBeta: polynomial exponent for buff/convect BC
buffOff     = 0.5    # buffOff: x-offset used in tanh for buff BC
buffFac     = 10.0   # buffFac: multiplication factor in tanh for buff BC
buffRed  =  0.50,  0.30,  0.30,  0.10,  0.05     # buffRed(1:5): buffRe distances
buffRef  =  0.50,  0.45,  0.05,  0.45,  0.05     # buffRef(1:5): buffRe distance fractions
###########################################

########## BOUNDARY CONDITIONS ##########
doassym = F    # doassym: T to modify assym parameters in user_code
BCver = 0     # #Eric:  1 = all outflow Dirichlet, 2 = inflow added, Dirichlet;    
ICver = 1      # 0 = quiescent, 1 = Gaussian, 2 = Flow at Mach number in x+ direction (0,1 only compatible with Freund)


evolBC = F     # evolBC: T to use evolutionary BCs, F to use algebraic BCs
##IF TRUE: Evolutionary BCS##
LODIit = 2       # LODIit: 1 for LODI, 2 for LODIslip, 3 for LODIavg, 4 for LODIsimp, 5 for liu, 6 for LODIaddon
LODIset = F      # LODIset: T to set characteristics u+/-c only, F to check all characteristics
LODIslipeasy = T # LODIslipeasy: T to simple LODIslip, where dp/dx=0 set in eqns')
dozeroFlux = T   # dozeroFlux: T to set dtau_i1/dx_1 (i.ne.1)=dq_1/dx_1=dY/dx_1=0 for evolBC
globFlux = 1     # globFlux: 1 to do global fluxes, 0 to do local fluxes on boundaries only
dervFlux = 0     # dervFlux: 1 to do derivative fluxes, 0 to set fluxes to 0 on boundary only
pertchar = T     # pertchar: t to do characteristics on perturbed p and rho
usedP0 = T       # usedP0: T to use dP0 for X2 perthcar, F to use -rhoYg
PLpinf = 1       # PLpinf: Poinsot Lele P_inf Brinkman term with LODI, 1:2 for P, 3:4 for T, 5:6 for u, (odd const coef, even var coef) 0 for nothing
##IF TRUE(.ne. 0): Pressure Difference Forcing Term## 
pBsig = 2.500e-01  # pBsig: sigma used in coefficient for pressure Brinkman term, 0 is no reflection
cnvtBC = F     # cnvtBC: T to use convection zone BCs (Freund), F to use algebraic BCs
##IF TRUE: Convection BC Zone##
polyconv = F     # polyconv: T to use polynomials for conv zone BCs,  F to use tanh
buffU0  = 2.0   # buffU0: scale for convect BC above c0
buffcvd  =  0.50,  0.30,  0.30,  0.30,  0.30     # buffcvd(1:5): convect zone distances
buffcvf  =  0.50,  0.45,  0.05,  0.45,  0.05     # buffcvf(1:5): convect zone distance fractions
buffBC = F     # buffBC: T to use buff zone damping BCs (Brinkman), F to use algebraic BCs
##IF TRUE: Buffer BC Zone##
pBrink = F            # pBrink: T to do Brinkman buffer only on pressure
polybuff = F          # polybuff: T to use polynomials for buff zone BCs,  F to use tanh
buffSig = 2.500e-01   # buffSig: scale for buff BC
buffbfd  =  0.50,  0.30,  0.30,  0.30,  0.30     # buffbfd(1:5): buffer zone distances
buffbff  =  0.50,  0.45,  0.05,  0.45,  0.05     # buffbff(1:5): bufferzone distance fractions
#########################################

########## COORDZONE ##########
Lczn = 5.000000e-02      # Lcoordzn: length of coord_zone on one side
tfacczn = -1.100000e-00  # tfacczn: factor multiply by time for coord_zone time=L/min(c)*tfac, set <0 for no czn modification
itfacczn = 1.100000e-00  # itfacczn: factor multiply by initial time for coord_zone itime=Lczn/min(c)*tfac, set <0 to set itime=0
###############################

########### SOLVER SETTINGS ############
methpd = 0                       # methpd: meth for taking pressure derivative in time, 0=central,1=back,2=forward
splitFBpress = F                 # splitFBpress: to split derivs for pressure dp/dx FB/BB light/heavy
stepsplit = F                    # stepsplit: T to do Heaviside split, F to use X
########################################

########## EXTRA VARIABLES ##########
adaptden = T  # adapt on density
adaptvel = T  # adapt on momentum
adapteng = T  # adapt on energy
adaptspc = F  # adapt on species equations
adaptprs = F  # adapt on pressure
adapttmp = F  # adapttmponly: T to adapt on temperature
tempscl = -1.0  # tempscl: scale for temperature, set < 0 for default, set =0 to use velocity scale
adaptvelonly = F  # adaptvelonly: T to adapt on velocity instead of momentum
adaptspconly = F  # adaptspconly: T to adapt on mass fraction (Y) instead of volume fraction (rhoY)
specscl = 1.0  # specscl: scale for species, set < 0 for default
savebuoys  = F  # savebuoys: if T adds and saves dPdx and -(dPdx + rho*g)
adaptbuoy = F  # adaptbuoy: T to adapt on buoy term
savepardom = F  # savepardom: T to save parallel domain as additional var
#!4extra - these 8 input definitions
adaptMagVort = F  # adaptMagVort: Adapt on the magnitude of vorticity
adaptComVort = F  # adaptComVort: Adapt on the components of vorticity
adaptMagVel  = F  # adaptMagVel: Adapt on the magnitude of velocity
adaptNormS   = F  # adaptNormS: Adapt on the L2 of Sij
adaptGradY   = F  # adaptGradY: Adapt on |dY/dx_i*dY/dx_i|
saveMagVort  = F  # saveMagVort: if T adds and saves magnitude of vorticity
saveComVort  = F  # saveComVort: if T adds and saves components of vorticity
saveMagVel   = F  # saveMagVel: if T adds and saves magnitude of velocity
saveNormS    = F  # saveNormS: if T adds and saves magnitude of strain rate
saveGradY    = F  # saveGradY: if T adds and saves |dY/dx_i*dY/dx_i|
saveUcvt     = F  # saveUcvt: save suppport for U and damping for Freund NRBCs
#####################################

############Brinkman Obstacle############
obstacle = T  #T to use brinkman penalization   
delta_conv = 1.0  # relative transition thickness (delta_Jmx) of the convective penalization zone
delta_diff = 2.0  # relative transition thickness (delta_Jmx) of the diffusion penalization zone
shift_conv = 1.0  # relative thickness (delta_Jmx) when convections is off
shift_diff = 1.0  # relative thickness (delta_Jmx) when diffusion is on
eta = 1.000000e-02   #penalization parameter
phi = 1.000000e-00

xw = 0.28
wa = 5.0
rhoL = 1.0	# Inflow denbsity
pL   = 1.0 	# Inflow pressure
uL   = 1.7      # Inflow x-component of velocity 

smooth_dist = F # T smoothes distance function prior finding the normal
deltadel_loc = 3.0  # sets final diffusion thickness using spatial resolution (dx, dy, or dz), number of points across final thickness
interpolate_dist = T # if T interpoaltes the distance function during time integration	       
use_dist = F # if T uses distance function 
saveUn = T  # if T saves normal and tangential components of the velocity
#########################################


###############################################################################################################################################################
# Hyperbolic solver variables
hypermodel = 1		# hypermodel: flag to turn on hyperbolic module
savevisc = T            # if T save numerical viscosity 
eps_low  = 1.00000e-04	# eps_low: lower bound error threshold
eps_high = 1.00000e-02	# eps_high: upper bound error threshold
hyper_mode = 1		# hyper_mode: 0 for non-conservative, 1 for conservative
min_wall_type = 1,0,0	#  XMIN, YMIN, ZMIN - 1:reflecting wall, 0: evolutionary
max_wall_type = 0,0,0	#  XMAX, YMAX, ZMAX - 1:reflecting wall, 0: evolutionary

shock = 0.20
